UID,image,title,institution,speaker,abstract,bio,session,presentation_id,room,times,zoom
1,"https://www.aistats.org/image/michael_jordan.jpg","Towards a Blend of Machine Learning and Microeconomics","UC Berkeley",Michael I. Jordan,"Statistical decisions are often given meaning in the context of other decisions, particularly when there are scarce resources to be shared. Managing such sharing is one of the classical goals of microeconomics, and it is given new scope in the modern setting of large, human-focused datasets, and in data-analytic contexts such as classifiers and recommendation systems. I'll discuss several recent projects that aim to explore this interface: (1) exploration-exploitation tradeoffs for bandits that compete over a scarce resource; (2) Langevin diffusions for solving Thompson sampling problems; and (3) economic perspectives on online control of false-discovery rates.","Michael I. Jordan is the Pehong Chen Distinguished Professor in the Department of Electrical Engineering and Computer Science and the Department of Statistics at the University of California, Berkeley. His research interests bridge the computational, statistical, cognitive and biological sciences. Prof. Jordan is a member of the National Academy of Sciences and a member of the National Academy of Engineering. He has been named a Neyman Lecturer and a Medallion Lecturer by the Institute of Mathematical Statistics, and he has given a Plenary Lecture at the International Congress of Mathematicians. He received the IJCAI Research Excellence Award in 2016, the David E. Rumelhart Prize in 2015, the ACM/AAAI Allen Newell Award in 2009, and the IEEE John von Neumann Medal in 2020.",1,38932484,Invited_Talk_Michael_Jordan,"26 Aug 2020 - 18:00:00-19:00:00; 28 Aug 2020 - 11:00:00-12:00:00",https://us02web.zoom.us/j/85666430494?pwd=c0JBdlRucC9kbjRwcC9ibDBLVFJvUT09
2,"https://www.aistats.org/image/daphne_koller.jpg","Machine Learning: A New Approach to Drug Discovery","insitro","Daphne Koller","Modern medicine has given us effective tools to treat some of the most significant and burdensome diseases. At the same time, it is becoming consistently more challenging to develop new therapeutics: clinical trial success rates hover around the mid-single-digit range; the pre-tax R&D cost to develop a new drug (once failures are incorporated) is estimated to be greater than $2.5B; and the rate of return on drug development investment has been decreasing linearly year by year, and some analyses estimate that it will hit 0% before 2020. A key contributor to this trend is that the drug development process involves multiple steps, each of which involves a complex and protracted experiment that often fails. We believe that, for many of these phases, it is possible to develop machine learning models to help predict the outcome of these experiments, and that those models, while inevitably imperfect, can outperform predictions based on traditional heuristics. The key will be to train powerful ML techniques on sufficient amounts of high-quality, relevant data. To achieve this goal, we are bringing together cutting edge methods in functional genomics and lab automation to build a bio-data factory that can produce relevant biological data at scale, allowing us to create large, high-quality datasets that enable the development of novel ML models. Our first goal is to engineer in vitro models of human disease that, via the use of appropriate ML models, are able to provide good predictions regarding the effect of interventions on human clinical phenotypes. Our ultimate goal is to develop a new approach to drug development that uses high-quality data and ML models to design novel, safe, and effective therapies that help more people, faster, and at a lower cost.","Daphne Koller is CEO and Founder of insitro, a company using machine learning and high-throughput biology to transform drug discovery. Daphne was the Rajeev Motwani Professor of Computer Science at Stanford University, where she served on the faculty for 18 years. She was the co-founder, co-CEO and President of Coursera for 5 years, and Chief Computing Officer of Calico, an Alphabet company in the healthcare space. She is the author of over 200 refereed publications appearing in venues such as Science, Cell, and Nature Genetics. Daphne was recognized as one of TIME Magazine’s 100 most influential people in 2012. She received the MacArthur Foundation Fellowship in 2004 and the ACM Prize in Computing in 2008. She was inducted into the National Academy of Engineering in 2011 and elected a fellow of the American Academy of Arts and Sciences in 2014 and of the International Society of Computational Biology in 2017.",1,38932483,Invited_Talk_Daphne_Koller,"26 Aug 2020 - 21:00:00-22:00:00; 27 Aug 2020 - 18:00:00-19:00:00",https://us02web.zoom.us/j/89971360021?pwd=Mk9qcE56c0NRZkhIYUxXd3NrU2U3QT09
